vvp.vcd
$date
	Tue May 28 17:57:15 2024
$end
$version
	Icarus Verilog
$end
$timescale
	1s
$end
$scope module testbench $end
$var wire 1 ! sig_my_module_y $end
$var reg 1024 " filename [1023:0] $end
$var reg 1 # sig_my_module_a $end
$var reg 1 $ sig_my_module_b $end
$var reg 32 % xorshift128_t [31:0] $end
$var reg 32 & xorshift128_w [31:0] $end
$var reg 32 ' xorshift128_x [31:0] $end
$var reg 32 ( xorshift128_y [31:0] $end
$var reg 32 ) xorshift128_z [31:0] $end
$var integer 32 * file [31:0] $end
$var integer 32 + i [31:0] $end
$scope module uut_my_module $end
$var wire 1 # a $end
$var wire 1 $ b $end
$var wire 1 ! y $end
$upscope $end
$scope task my_module_print_header $end
$upscope $end
$scope task my_module_print_status $end
$upscope $end
$scope task my_module_reset $end
$upscope $end
$scope task my_module_test $end
$upscope $end
$scope task my_module_update_clock $end
$upscope $end
$scope task my_module_update_data $end
$upscope $end
$scope task xorshift128 $end
$upscope $end
$upscope $end
$enddefinitions $end
$comment Show the parameter values. $end
$dumpall
$end
#0
$dumpvars
bx +
b10 *
b11111000100100011101110110101 )
b10101100110100101010111100101 (
b111010110111100110100010101 '
b1100110010101011111110101100011 &
bx %
x$
x#
b1110110011101100111000000101110011101100110001101100100 "
x!
$end
#2
0!
0#
#4
0$
#102
1#
#104
1!
1$
#200
b0 +
#300
b1111000010011011111100010110110 &
b10111111101111111010011111011001 )
b1100110010101011111110101100011 (
b11111000100100011101110110101 '
b11000111001101010111110111100101 %
#304
0!
0$
#600
b1 +
#700
b111111011110111110111011011110 &
b11110110000011001010101110011001 )
b1111000010011011111100010110110 (
b10111111101111111010011111011001 '
b11001001101111101110010101100011 %
#1000
b10 +
#1100
b1101010001001111100100011001110 &
b1111101101110000000011110000111 )
b111111011110111110111011011110 (
b11110110000011001010101110011001 '
b10111100010000100100010110110 %
#1400
b11 +
#1500
b11001000010011111101010001100 &
b11111001111001001111011001110000 )
b1101010001001111100100011001110 (
b1111101101110000000011110000111 '
b11100000000011010001111011011110 %
#1502
0#
#1800
b100 +
#1900
b11110000000001011000111111100101 &
b10100100001100000100001000010101 )
b11001000010011111101010001100 (
b11111001111001001111011001110000 '
b1010100011000011011100011001110 %
#1902
1#
#1904
1!
1$
#2200
b101 +
#2300
b1111000000001111111001000100100 &
b101110100011001011000011100011 )
b11110000000001011000111111100101 (
b10100100001100000100001000010101 '
b1010110110111011001101010001100 %
#2304
0!
0$
#2600
b110 +
#2700
b10000010101001111110000101011001 &
b1011110000000010011011111011011 )
b1111000000001111111001000100100 (
b101110100011001011000011100011 '
b11011100011110101010011111100101 %
#2704
1!
1$
#3000
b111 +
#3100
b10001110001101100000111110001100 &
b11001001111001110101001001000110 )
b10000010101001111110000101011001 (
b1011110000000010011011111011011 '
b1000111100101101101001000100100 %
#3102
0!
0#
#3104
0$
#3400
b1000 +
#3500
b1100100110011101101000100110101 &
b11011001110111100100111001111110 )
b10001110001101100000111110001100 (
b11001001111001110101001001000110 '
b10111101101011010010100101011001 %
#3504
1$
#3800
b1001 +
#3900
b10101001001111001111110110000010 &
b10010111010010001100101010001000 )
b1100100110011101101000100110101 (
b11011001110111100100111001111110 '
b111110010010100110111110001100 %
#3904
0$
#4200
b1010 +
#4300
b10010000111011111101010101111110 &
b10000010101110101111101101100101 )
b10101001001111001111110110000010 (
b10010111010010001100101010001000 '
b10010010001110111100100110101 %
#4302
1#
#4600
b1011 +
#4700
b1111101111000110010000101010 &
b1000001001000100101000101100001 )
b10010000111011111101010101111110 (
b10000010101110101111101101100101 '
b1001110110100001110110110000010 %
#5000
b1100 +
#5100
b10110100001000101011110101100001 &
b1011010100010001101011101101011 )
b1111101111000110010000101010 (
b1000001001000100101000101100001 '
b11101110010001000010010101111110 %
#5104
1!
1$
#5400
b1101 +
#5500
b1011101010011110111000111000 &
b11100111110110000101101111011101 )
b10110100001000101011110101100001 (
b1011010100010001101011101101011 '
b11101100100111010011010000101010 %
#5504
0!
0$
#5800
b1110 +
#5900
b10110110111011100010110110001101 &
b10111100001100101001110101001 )
b1011101010011110111000111000 (
b11100111110110000101101111011101 '
b10100001110010011011010101100001 %
#5904
1!
1$
#6200
b1111 +
#6300
b11010111010100010110101001010001 &
b10010011110011011000111000111110 )
b10110110111011100010110110001101 (
b10111100001100101001110101001 '
b1000100110110000010111000111000 %
#6302
0!
0#
#6600
b10000 +
#6700
b110101001010101010100110001100 &
b11110010011011110111000000001001 )
b11010111010100010110101001010001 (
b10010011110011011000111000111110 '
b11000111100000100100010110001101 %
#6702
1!
1#
#6704
0!
0$
#7000
b10001 +
#7100
b10010110001101101001010110010111 &
b11001010011010010110110101101001 )
b110101001010101010100110001100 (
b11110010011011110111000000001001 '
b1011100000000111110001001010001 %
#7104
1!
1$
#7400
b10010 +
#7500
b1111111010101101111110011001111 &
b11111010100000101000001100000 )
b10010110001101101001010110010111 (
b11001010011010010110110101101001 '
b1100000011001101100100110001100 %
#7502
0!
0#
#7800
b10011 +
#7900
b11011100011011010111110000001001 &
b11111110110101011101010001101001 )
b1111111010101101111110011001111 (
b11111010100000101000001100000 '
b100010100110100010110110010111 %
#7902
1!
1#
#8200
b10100 +
#8300
b10001001010110111101100011011011 &
b1000001001000111110010010110100 )
b11011100011011010111110000001001 (
b11111110110101011101010001101001 '
b11001000101100001000010011001111 %
#8302
0!
0#
#8600
b10101 +
#8700
b1101110010001111000000100010111 &
b11011001011111010010001100000101 )
b10001001010110111101100011011011 (
b1000001001000111110010010110100 '
b10110111100011010011010000001001 %
#8702
1!
1#
#9000
b10110 +
#9100
b1100111110101010101010111110111 &
b110000000111111100111000101111 )
b1101110010001111000000100010111 (
b11011001011111010010001100000101 '
b1010111100111010000000011011011 %
#9400
b10111 +
#9500
b101100111010100101111011101 &
b1010111100000000011011100000011 )
b1100111110101010101010111110111 (
b110000000111111100111000101111 '
b1010010010011110011100100010111 %
#9800
b11000 +
#9900
b110100010100001110110001010 &
b11001011001111011001001111110111 )
b101100111010100101111011101 (
b1010111100000000011011100000011 '
b11001101011110101110110111110111 %
#9904
0!
0$
#10200
b11001 +
#10300
b10111111110010000110000000010101 &
b1010000111001000000101001110111 )
b110100010100001110110001010 (
b11001011001111011001001111110111 '
b11101111110000111010001111011101 %
#10304
1!
1$
#10600
b11010 +
#10700
b11001110011111011100011011111110 &
b10011000010011011111111000110000 )
b10111111110010000110000000010101 (
b1010000111001000000101001110111 '
b1010110011001100100110110001010 %
#10702
0!
0#
#10704
0$
#11000
b11011 +
#11100
b1000010100011101100110111111110 &
b10111110101110101101101011110100 )
b11001110011111011100011011111110 (
b10011000010011011111111000110000 '
b11111100110010001100100000010101 %
#11400
b11100 +
#11500
b10010101101011110110110110010001 &
b10110101110001010000011111100001 )
b1000010100011101100110111111110 (
b10111110101110101101101011110100 '
b100000010010100011011011111110 %
#11502
1#
#11504
1!
1$
#11800
b11101 +
#11900
b11001001011111111010101111011100 &
b11111101101010100110100010101010 )
b10010101101011110110110110010001 (
b10110101110001010000011111100001 '
b110100111000010011110111111110 %
#11902
0!
0#
#11904
0$
#12200
b11110 +
#12300
b10111010001101010110101111101010 &
b1010100000110000100011100011101 )
b11001001011111111010101111011100 (
b11111101101010100110100010101010 '
b11101110110000111110010110010001 %
#12302
1#
#12600
b11111 +
#12700
b100000011000011100001100100111 &
b10100011101001010101100111110 )
b10111010001101010110101111101010 (
b1010100000110000100011100011101 '
b110100001000010100101111011100 %
#12702
0#
#12704
1$
#13000
b100000 +
#13100
b10100111101011000000111110010010 &
b10110110110101110100100010011001 )
b100000011000011100001100100111 (
b10100011101001010101100111110 '
b10001011010100011101111101010 %
#13102
1!
1#
#13104
0!
0$
#13400
b100001 +
#13500
b111000011001101110110000011000 &
b10110001100000110110100000010 )
b10100111101011000000111110010010 (
b10110110110101110100100010011001 '
b101110011110001111101100100111 %
#13502
0#
#13800
b100010 +
#13900
b11110011111011101011000110011111 &
b110100111110011111100000001101 )
b111000011001101110110000011000 (
b10110001100000110110100000010 '
b11000111110100001001111110010010 %
#13902
1#
#13904
1!
1$
#14200
b100011 +
#14300
b1101001001010101010110001101101 &
b1100110001000111000101010011101 )
b11110011111011101011000110011111 (
b110100111110011111100000001101 '
b1111000001100010110000011000 %
#14600
b100100 +
#14700
b10100000011000011000101011110 &
b10010010111010000000100011010101 )
b1101001001010101010110001101101 (
b1100110001000111000101010011101 '
b10000110011000100100100110011111 %
#14704
0!
0$
#15000
b100101 +
#15100
b1010010011101001010011001001001 &
b1101110000000010010011000100000 )
b10100000011000011000101011110 (
b10010010111010000000100011010101 '
b111100010010011100010001101101 %
#15102
0#
#15104
1$
#15400
b100110 +
#15500
b11110101111110111111010111101100 &
b10000000000010001010001001110010 )
b1010010011101001010011001001001 (
b1101110000000010010011000100000 '
b1110101100001101100000101011110 %
#15504
0$
#15800
b100111 +
#15900
b1100101000111010100011110100111 &
b10010010101011001111110101010101 )
b11110101111110111111010111101100 (
b10000000000010001010001001110010 '
b11110111010001101110111001001001 %
#15902
1#
#15904
1!
1$
#16200
b101000 +
#16300
b10001010101111011011011100100101 &
b10100000110000110110001001000100 )
b1100101000111010100011110100111 (
b10010010101011001111110101010101 '
b101010010101001001010111101100 %
#16302
0!
0#
#16600
b101001 +
#16700
b11110000101000011110010101001011 &
b1111111000011101011010101110010 )
b10001010101111011011011100100101 (
b10100000110000110110001001000100 '
b10001111001000000111111110100111 %
#17000
b101010 +
#17100
b101100101010001111101010011010 &
b1001011110010110110100001011001 )
b11110000101000011110010101001011 (
b1111111000011101011010101110010 '
b1100111000001001001111100100101 %
#17102
1!
1#
#17104
0!
0$
#17400
b101011 +
#17500
b11011001011100110100110101101110 &
b100110000001110111111101011000 )
b101100101010001111101010011010 (
b1001011110010110110100001011001 '
b11111111100010111011110101001011 %
#17502
0#
#17800
b101100 +
#17900
b10100010111111010011000000110100 &
b11001001111010100111111110111001 )
b11011001011100110100110101101110 (
b100110000001110111111101011000 '
b1101011011111000010101010011010 %
#17902
1#
#18200
b101101 +
#18300
b11111100010001100101010000111100 &
b10111111000111010110011010001100 )
b10100010111111010011000000110100 (
b11001001111010100111111110111001 '
b1000011000110000011110101101110 %
#18302
0#
#18600
b101110 +
#18700
b101101111111000000101111000111 &
b1100110110010111110101110111010 )
b11111100010001100101010000111100 (
b10111111000111010110011010001100 '
b1001011011111001001000000110100 %
#18704
1$
#19000
b101111 +
#19100
b10110111101010000111110101001010 &
b1111001100000010010000111110010 )
b101101111111000000101111000111 (
b1100110110010111110101110111010 '
b11001110111001111011010000111100 %
#19104
0$
#19400
b110000 +
#19500
b1000011011010000100011000001010 &
b10001110000001111100011000111110 )
b10110111101010000111110101001010 (
b1111001100000010010000111110010 '
b11001101101000100011001111000111 %
#19800
b110001 +
#19900
b11000111001000000001100000110001 &
b110011100101100111000100100100 )
b1000011011010000100011000001010 (
b10001110000001111100011000111110 '
b11110100010000100010110101001010 %
#19904
1$
#20200
b110010 +
#20300
b1110110111111110100000000110101 &
b1110111101001100000000011011101 )
b11000111001000000001100000110001 (
b110011100101100111000100100100 '
b1010110000001011000001010 %
#20302
1!
1#
#20600
b110011 +
#20700
b110001010001100110111111110010 &
b11110110011000000000000010011111 )
b1110110111111110100000000110101 (
b1110111101001100000000011011101 '
b11000111111000011001000000110001 %
#20704
0!
0$
#21000
b110100 +
#21100
b11111010110100110011100111100110 &
b1110110101000010010000111101111 )
b110001010001100110111111110010 (
b11110110011000000000000010011111 '
b10001100111111101110100000110101 %
#21400
b110101 +
#21500
b1110011110100111110101011110 &
b1100010000011011101011011011 )
b11111010110100110011100111100110 (
b1110110101000010010000111101111 '
b10001110011111111111110010 %
#21800
b110110 +
#21900
b10010110101001001000011111101 &
b1110001101010111000101100100111 )
b1110011110100111110101011110 (
b1100010000011011101011011011 '
b1100011000111000000100111100110 %
#21904
1!
1$
#22200
b110111 +
#22300
b11001110000011110111100010100101 &
b10011010000100110011100011110 )
b10010110101001001000011111101 (
b1110001101010111000101100100111 '
b11011101100100001000110101011110 %
#22302
0!
0#
#22600
b111000 +
#22700
b1010101001101010001011100001111 &
b11100011110100000010000011110000 )
b11001110000011110111100010100101 (
b10011010000100110011100011110 '
b10110110010100110111100011111101 %
#23000
b111001 +
#23100
b11100000001100000110000001111100 &
b1010101010011111111000000100000 )
b1010101001101010001011100001111 (
b11100011110100000010000011110000 '
b10110101110010100101000010100101 %
#23104
0$
#23400
b111010 +
#23500
b1111111111101011111100100011010 &
b10000010100001010000101100101010 )
b11100000001100000110000001111100 (
b1010101010011111111000000100000 '
b11111101100011010110111100001111 %
#23800
b111011 +
#23900
b110110010000010111000101101010 &
b1010101000100011100100000110100 )
b1111111111101011111100100011010 (
b10000010100001010000101100101010 '
b1100011001100111000000001111100 %
#24200
b111100 +
#24300
b1001100110110101111011101100110 &
b10011100001101111111000011010011 )
b110110010000010111000101101010 (
b1010101000100011100100000110100 '
b11010000001111010010100100011010 %
#24302
1#
#24600
b111101 +
#24700
b10101010101001100011111100000000 &
b10010111010100011100011010100001 )
b1001100110110101111011101100110 (
b10011100001101111111000011010011 '
b111101110010100010000101101010 %
#25000
b111110 +
#25100
b10010110011100100010001101000 &
b10001001001101001111001111101111 )
b10101010101001100011111100000000 (
b10010111010100011100011010100001 '
b10011011011000011100011101100110 %
#25400
b111111 +
#25500
b10010000011101101000110000010111 &
b1011101100111110110001011110 )
b10010110011100100010001101000 (
b10001001001101001111001111101111 '
b10011011010111100011111100000000 %
#25502
0#
#25504
1$
#25800
b1000000 +
#25900
b11011110011111100100000011001111 &
b10111110111100111011111001111101 )
b10010000011101101000110000010111 (
b1011101100111110110001011110 '
b1100000111011010000010001101000 %
#25902
1!
1#
#26200
b1000001 +
#26300
b1101110000010011011110100100110 &
b1001010001110111001011001000010 )
b11011110011111100100000011001111 (
b10111110111100111011111001111101 '
b100100000101100011010000010111 %
#26302
0!
0#
#26304
0$
#26600
b1000010 +
#26700
b1100001011111101010111110011110 &
b1001101001010101110011011001100 )
b1101110000010011011110100100110 (
b1001010001110111001011001000010 '
b101100011110000011100011001111 %
#27000
b1000011 +
#27100
b11010100101000101101111100110010 &
b11110111011000011010110001110101 )
b1100001011111101010111110011110 (
b1001101001010101110011011001100 '
b100011111000001000110100100110 %
#27102
1#
#27400
b1000100 +
#27500
b1011010001100100001101111111001 &
b11001110101001000101111111101100 )
b11010100101000101101111100110010 (
b11110111011000011010110001110101 '
b10010100000000100101111110011110 %
#27502
0#
#27504
1$
#27800
b1000101 +
#27900
b1100010010100110001011010101010 &
b10100000110010100001011011001110 )
b1011010001100100001101111111001 (
b11001110101001000101111111101100 '
b11000010010110110100111100110010 %
#27904
0$
#28200
b1000110 +
#28300
b1000100110000110101000111000101 &
b10001110111001000111111000110011 )
b1100010010100110001011010101010 (
b10100000110010100001011011001110 '
b11001010111011011101001111111001 %
#28302
1#
#28304
1!
1$
#28600
b1000111 +
#28700
b1001110010100111111010110010000 &
b10110100010011110100001111110101 )
b1000100110000110101000111000101 (
b10001110111001000111111000110011 '
b11111010111001100100011010101010 %
#28704
0!
0$
#29000
b1001000 +
#29100
b10111101111110000010011101001110 &
b11100011111010110000111110001111 )
b1001110010100111111010110010000 (
b10110100010011110100001111110101 '
b1011110010011010111100111000101 %
#29400
b1001001 +
#29500
b10100010010010000000111101100110 &
b1110011011001101000101111101111 )
b10111101111110000010011101001110 (
b11100011111010110000111110001111 '
b11010001111111110111010110010000 %
#29800
b1001010 +
#29900
b1100101110110100110110111100010 &
b11001011001001111101111010111 )
b10100010010010000000111101100110 (
b1110011011001101000101111101111 '
b1111100110000100101011101001110 %
#30200
b1001011 +
#30300
b11000000011101011010001101001000 &
b100010101001001010101101000101 )
b1100101110110100110110111100010 (
b11001011001001111101111010111 '
b11100010001100110011111101100110 %
#30600
b1001100 +
#30700
b1001000111100101001010110010011 &
b11111110111100010100001011010010 )
b11000000011101011010001101001000 (
b100010101001001010101101000101 '
b10110110101101010111110111100010 %
#30702
0#
#30704
1$
#31000
b1001101 +
#31100
b100010000010010110010000000001 &
b1001111000010111110000101001011 )
b1001000111100101001010110010011 (
b11111110111100010100001011010010 '
b1101101011011111110001101001000 %
#31102
1!
1#
#31400
b1001110 +
#31500
b10001010000110000000110000001101 &
b1010110100110100101010101000000 )
b100010000010010110010000000001 (
b1001111000010111110000101001011 '
b11011100010111100000110110010011 %
#31502
0!
0#
#31800
b1001111 +
#31900
b11110011010010011111001110010000 &
b10011010000010011010010110111100 )
b10001010000110000000110000001101 (
b1010110100110100101010101000000 '
b1101001001010010110110000000001 %
#31904
0$
#32200
b1010000 +
#32300
b111101110011111001101001111010 &
b1110111111111011000100011101100 )
b11110011010010011111001110010000 (
b10011010000010011010010110111100 '
b1001010011110000110010000001101 %
#32600
b1010001 +
#32700
b1010110010101010100011110011110 &
b11101010001111001111110000111010 )
b111101110011111001101001111010 (
b1110111111111011000100011101100 '
b10111100110101010111001110010000 %
#33000
b1010010 +
#33100
b10001100001010010101000011001110 &
b11001101011101000001111101010000 )
b1010110010101010100011110011110 (
b11101010001111001111110000111010 '
b1000001000111000100101001111010 %
#33400
b1010011 +
#33500
b1111101011011000111111001001011 &
b10000001111110011011000001011101 )
b10001100001010010101000011001110 (
b11001101011101000001111101010000 '
b11111100011010011011011110011110 %
#33502
1#
#33504
1!
1$
#33800
b1010100 +
#33900
b11010110111001101110110111010110 &
b10000100011110110000000101001 )
b1111101011011000111111001001011 (
b10000001111110011011000001011101 '
b11000110101011110010000011001110 %
#33904
0!
0$
#34200
b1010101 +
#34300
b10000100010100010111111100111000 &
b10011010110100011101010000001111 )
b11010110111001101110110111010110 (
b10000100011110110000000101001 '
b11110100111100010011001001011 %
#34600
b1010110 +
#34700
b1110110111010000000111001110 &
b11101111101101001100100110110011 )
b10000100010100010111111100111000 (
b10011010110100011101010000001111 '
b11100001100010000101110111010110 %
#35000
b1010111 +
#35100
b10101000111111100100101100110 &
b11010101110001101110110110110 )
b1110110111010000000111001110 (
b11101111101101001100100110110011 '
b1111101010001011111100111000 %
#35102
0#
#35400
b1011000 +
#35500
b10111010100110101100101000001101 &
b1011100101011110110001100100111 )
b10101000111111100100101100110 (
b11010101110001101110110110110 '
b11100110110100110111000111001110 %
#35502
1#
#35504
1!
1$
#35800
b1011001 +
#35900
b10001101101011000100010011011000 &
b1100110000100111110010110000101 )
b10111010100110101100101000001101 (
b1011100101011110110001100100111 '
b11101011010101001111100101100110 %
#35904
0!
0$
#36200
b1011010 +
#36300
b11000110100110111100010111111001 &
b10101010001111011011100000010001 )
b10001101101011000100010011011000 (
b1100110000100111110010110000101 '
b1101100110010101010001000001101 %
#36304
1!
1$
#36600
b1011011 +
#36700
b11010000001110000010011011010101 &
b111111010111010010111101100010 )
b11000110100110111100010111111001 (
b10101010001111011011100000010001 '
b11101111100010101000010011011000 %
#36702
0!
0#
#37000
b1011100 +
#37100
b10001111001011100101101011110111 &
b10010111100000101111000111110011 )
b11010000001110000010011011010101 (
b111111010111010010111101100010 '
b11000101101000000110111111001 %
#37102
1!
1#
#37400
b1011101 +
#37500
b1001000110000011101100100101111 &
b1011001110111100101001001001111 )
b10001111001011100101101011110111 (
b10010111100000101111000111110011 '
b10001000011101000111011010101 %
#37800
b1011110 +
#37900
b110101010010001011011010110001 &
b11001000010011001011010010101101 )
b1001000110000011101100100101111 (
b1011001110111100101001001001111 '
b11111101111110011110001011110111 %
#38200
b1011111 +
#38300
b11011000111000010110110000100110 &
b10011110101011111101011001111101 )
b110101010010001011011010110001 (
b11001000010011001011010010101101 '
b1000110000010001010000100101111 %
#38304
0!
0$
#38600
b1100000 +
#38700
b101001010001000111101110000 &
b1110101101001010100001001001011 )
b11011000111000010110110000100110 (
b10011110101011111101011001111101 '
b1110000111111010011111010110001 %
#39000
b1100001 +
#39100
b110110100001110110110101010110 &
b11100101110101001010110110010110 )
b101001010001000111101110000 (
b1110101101001010100001001001011 '
b11010011100000000101110000100110 %
#39102
0#
#39400
b1100010 +
#39500
b101000011111011001011110000101 &
b1101001011011111100011011010111 )
b110110100001110110110101010110 (
b11100101110101001010110110010110 '
b1000001010100110000111101110000 %
#39502
1#
#39504
1!
1$
#39800
b1100011 +
#39900
b1100101011001010000101010011010 &
b1101000100001010011011100000001 )
b101000011111011001011110000101 (
b1101001011011111100011011010111 '
b1101111011011101110101010110 %
#39904
0!
0$
#40200
b1100100 +
#40300
b10110110001011100101000111100000 &
b1110010001010110010000110011111 )
b1100101011001010000101010011010 (
b1101000100001010011011100000001 '
b11000100110000011011111110000101 %
#40600
b1100101 +
#40700
b10111010001011101011000010110001 &
b11110111010100100100010100011011 )
b10110110001011100101000111100000 (
b1110010001010110010000110011111 '
b1001101001100011101101010011010 %
#40704
1!
1$
#41000
b1100110 +
#41100
b1010101010001111011101100100111 &
b10010001001000100101100110110010 )
b10111010001011101011000010110001 (
b11110111010100100100010100011011 '
b11000100101000010101000111100000 %
#41102
0!
0#
#41400
b1100111 +
#41500
b11111111001111001100001110001011 &
b110000010110000101011000001001 )
b1010101010001111011101100100111 (
b10010001001000100101100110110010 '
b11001111101010110011100010110001 %
#41502
1!
1#
#41800
b1101000 +
#41900
b10100101001101110100000111001 &
b1111100010100001111101000010111 )
b11111111001111001100001110001011 (
b110000010110000101011000001001 '
b1101000100111101000001100100111 %
#42200
b1101001 +
#42300
b11111111100001011011101101111101 &
b11100110101111000001110010111010 )
b10100101001101110100000111001 (
b1111100010100001111101000010111 '
b11001001000001001101110001011 %
#42302
0!
0#
#42600
b1101010 +
#42700
b100111001110101010000101011110 &
b100111111100110011011011000 )
b11111111100001011011101101111101 (
b11100110101111000001110010111010 '
b100011111001110010000000111001 %
#42704
0$
#43000
b1101011 +
#43100
b11110011111010010011100111001101 &
b100001011001010011000011001111 )
b100111001110101010000101011110 (
b100111111100110011011011000 '
b11010010010111100101001101111101 %
#43102
1#
#43104
1!
1$
#43400
b1101100 +
#43500
b11110110000101000010100001011011 &
b100110101100100100111001110 )
b11110011111010010011100111001101 (
b100001011001010011000011001111 '
b11110010001100000101000101011110 %
#43502
0!
0#
#43800
b1101101 +
#43900
b1000100011000101111010001011101 &
b11111110111111111001110100011110 )
b11110110000101000010100001011011 (
b100110101100100100111001110 '
b10111010001001110101000111001101 %
#44200
b1101110 +
#44300
b10100101010011011110010111000100 &
b11110010010011000101110100100110 )
b1000100011000101111010001011101 (
b11111110111111111001110100011110 '
b1010111010101101111000001011011 %
#44304
0$
#44600
b1101111 +
#44700
b11110100110010110100001110110100 &
b10100111010110001000101100011110 )
b10100101010011011110010111000100 (
b11110010010011000101110100100110 '
b1010011110000000001110001011101 %
#45000
b1110000 +
#45100
b10101110010101110011111111111000 &
b1100100111111101001010101100110 )
b11110100110010110100001110110100 (
b10100111010110001000101100011110 '
b11001010011000111100010111000100 %
#45400
b1110001 +
#45500
b1100011010011000111110110100110 &
b11001101001101000101000101010111 )
b10101110010101110011111111111000 (
b1100100111111101001010101100110 '
b10101110110101101110001110110100 %
#45502
1#
#45800
b1110010 +
#45900
b11100100001101101100100001111010 &
b11110011100010011000000100001100 )
b1100011010011000111110110100110 (
b11001101001101000101000101010111 '
b10111101010001111111111111000 %
#45902
0#
#46200
b1110011 +
#46300
b10001011010001100111111011010101 &
b10001011111001111000001101000010 )
b11100100001101101100100001111010 (
b11110011100010011000000100001100 '
b101000010100110110100110 %
#46304
1$
#46600
b1110100 +
#46700
b1100110010111110110010010111101 &
b110100011110000000111101010000 )
b10001011010001100111111011010101 (
b10001011111001111000001101000010 '
b1010010011101010001100001111010 %
#47000
b1110101 +
#47100
b1101001000111010111101010000110 &
b11010001000101010000011010100111 )
b1100110010111110110010010111101 (
b110100011110000000111101010000 '
b10111000101100001101011011010101 %
#47102
1!
1#
#47104
0!
0$
#47400
b1110110 +
#47500
b11000001111111110110 &
b10011101111010111111101001111010 )
b1101001000111010111101010000110 (
b11010001000101010000011010100111 '
b10011101011110101000110010111101 %
#47502
0#
#47800
b1110111 +
#47900
b11111011000111101000110110001000 &
b1111001010101010000000101101110 )
b11000001111111110110 (
b10011101111010111111101001111010 '
b10000010110010010100101010000110 %
#48200
b1111000 +
#48300
b1011001011101111101101111011110 &
b111001111001001000000010111011 )
b11111011000111101000110110001000 (
b1111001010101010000000101101110 '
b1100000111100111010111111110110 %
#48302
1#
#48600
b1111001 +
#48700
b10000111100001010101000110110101 &
b10001000111110001111111111101111 )
b1011001011101111101101111011110 (
b111001111001001000000010111011 '
b1111011100101100110110001000 %
#48704
1!
1$
#49000
b1111010 +
#49100
b1111101001101110110100100011100 &
b10011010011110011111100010100110 )
b10000111100001010101000110110101 (
b10001000111110001111111111101111 '
b11100111101010010010101111011110 %
#49102
0!
0#
#49104
0$
#49400
b1111011 +
#49500
b10011111110110100001000111010001 &
b110010011111111110011011010010 )
b1111101001101110110100100011100 (
b10011010011110011111100010100110 '
b10101101000010001111100110110101 %
#49504
1$
#49800
b1111100 +
#49900
b1100100010101001100110010111 &
b11001010001100110111011001000100 )
b10011111110110100001000111010001 (
b110010011111111110011011010010 '
b11000110011111111000100100011100 %
#50200
b1111101 +
#50300
b10001110000101010111001011001011 &
b11000001000011101010011110100010 )
b1100100010101001100110010111 (
b11001010001100110111011001000100 '
b1001111010101001001100111010001 %
#50600
b1111110 +
#50700
b10000111110110111100100001010101 &
b11011111110001011011010000011011 )
b10001110000101010111001011001011 (
b11000001000011101010011110100010 '
b1011000010001100010000110010111 %
#50702
1!
1#
#51000
b1111111 +
#51100
b10110111110101111001100110001 &
b110011010111000101110010111011 )
b10000111110110111100100001010101 (
b11011111110001011011010000011011 '
b100101100000110010101011001011 %
#51400
b10000000 +
#51500
b10111101101011010001110100100001 &
b11100100011011011111100010011001 )
b10110111110101111001100110001 (
b110011010111000101110010111011 '
b1011001100110010110000001010101 %
#51800
b10000001 +
#51900
b10101101011001110010001001111001 &
b1101100110001010011011110101011 )
b10111101101011010001110100100001 (
b11100100011011011111100010011001 '
b11000001011000110111101100110001 %
#52200
b10000010 +
#52300
b11110011110101001111101110000000 &
b100110010001011010111001111100 )
b10101101011001110010001001111001 (
b1101100110001010011011110101011 '
b11010101010001000001010100100001 %
#52302
0!
0#
#52304
0$
#52600
b10000011 +
#52700
b100010000010010111101001110000 &
b10110110111010011111001000111110 )
b11110011110101001111101110000000 (
b100110010001011010111001111100 '
b10010100011101001110101001111001 %
#53000
b10000100 +
#53100
b1111101011010001111000001011110 &
b101001001101000000011000000011 )
b100010000010010111101001110000 (
b10110110111010011111001000111110 '
b1010100000010001111101110000000 %
#53102
1#
#53400
b10000101 +
#53500
b11101101010110101011010111011000 &
b10000100111010011000010111001111 )
b1111101011010001111000001011110 (
b101001001101000000011000000011 '
b1101001110110101111101001110000 %
#53800
b10000110 +
#53900
b1011110000001110101010010101010 &
b1100100110101111011001001101110 )
b11101101010110101011010111011000 (
b10000100111010011000010111001111 '
b111010111010100000000001011110 %
#53902
0#
#54200
b10000111 +
#54300
b10101110110001001111011000110100 &
b10010110000010000110010101011000 )
b1011110000001110101010010101010 (
b1100100110101111011001001101110 '
b111000111101000111010111011000 %
#54600
b10001000 +
#54700
b10011100111111100110100000101 &
b1110111010110010110010101000000 )
b10101110110001001111011000110100 (
b10010110000010000110010101011000 '
b1100100101000100000010010101010 %
#54704
1$
#55000
b10001001 +
#55100
b1001111100101000111001100100100 &
b11000110011010000100100010001011 )
b10011100111111100110100000101 (
b1110111010110010110010101000000 '
b10001001011101010101011000110100 %
#55102
1!
1#
#55104
0!
0$
#55400
b10001010 +
#55500
b11110010000010110000001111000 &
b11110011010110110110110011110011 )
b1001111100101000111001100100100 (
b11000110011010000100100010001011 '
b11101101111101111110010100000101 %
#55800
b10001011 +
#55900
b1110110000010000001001000000001 &
b10011010111010010101111100101011 )
b11110010000010110000001111000 (
b11110011010110110110110011110011 '
b11101100000011010101001100100100 %
#55904
1!
1$
#56200
b10001100 +
#56300
b1001011010010110011110111011100 &
b1011110000111001101010011000111 )
b1110110000010000001001000000001 (
b10011010111010010101111100101011 '
b10101010000101010000001111000 %
#56304
0!
0$
#56600
b10001101 +
#56700
b10101101001001011011001011110011 &
b10011011100010110010001110011001 )
b1001011010010110011110111011100 (
b1011110000111001101010011000111 '
b110110100110000001101000000001 %
#56704
1!
1$
#57000
b10001110 +
#57100
b111100100001000101111011001 &
b10101001001111111000101111100 )
b10101101001001011011001011110011 (
b10011011100010110010001110011001 '
b10010101001011101110111011100 %
#57102
0!
0#
#57400
b10001111 +
#57500
b1000101111101110111011100111000 &
b11000101110001011111011101011001 )
b111100100001000101111011001 (
b10101001001111111000101111100 '
b10000000101100100010101011110011 %
#57502
1!
1#
#57504
0!
0$
#57800
b10010000 +
#57900
b11101100001111000100001010011111 &
b1101111011100011100001011101011 )
b1000101111101110111011100111000 (
b11000101110001011111011101011001 '
b10000011110011100100001111011001 %
#57904
1!
1$
#58200
b10010001 +
#58300
b11111000000110011110011000100100 &
b110101010010001111101111110 )
b11101100001111000100001010011111 (
b1101111011100011100001011101011 '
b11111110010011101011011100111000 %
#58302
0!
0#
#58304
0$
#58600
b10010010 +
#58700
b10111101110001001010001000000 &
b11001100111100000010101010110 )
b11111000000110011110011000100100 (
b110101010010001111101111110 '
b1110001010001011101010011111 %
#59000
b10010011 +
#59100
b1101110101110111100111011110000 &
b1011001101001000010101100100110 )
b10111101110001001010001000000 (
b11001100111100000010101010110 '
b110111001010001100011000100100 %
#59400
b10010100 +
#59500
b1010100001011110101110011101100 &
b10000111111001101100001011000100 )
b1101110101110111100111011110000 (
b1011001101001000010101100100110 '
b11010011000110101001010001000000 %
#59800
b10010101 +
